…
``` r
month_df = 
  tibble(
    month = 1:12, 
    month_name = month.name
  )

precip_df = 
  bind_rows(precip_2018, precip_2017)

left_join(precip_df, month_df, by = "month")
```

    ## # A tibble: 24 x 4
    ##     year month total month_name
    ##    <dbl> <dbl> <dbl> <chr>     
    ##  1  2018     1  0.94 January   
    ##  2  2018     2  4.8  February  
    ##  3  2018     3  2.69 March     
    ##  4  2018     4  4.69 April     
    ##  5  2018     5  9.27 May       
    ##  6  2018     6  4.77 June      
    ##  7  2018     7 10.2  July      
    ##  8  2018     8  6.45 August    
    ##  9  2018     9 10.5  September 
    ## 10  2018    10  2.12 October   
    ## # ... with 14 more rows
…
*Part 2: Details about the data.*

Find the number of distant stations, the number of ADA compliant
stations, and the proportion of station entrances and exits without
vending that allow entrance.

``` r
distinct(nyc_transit_tidy, station_name)
```

    ## # A tibble: 356 x 1
    ##    station_name            
    ##    <chr>                   
    ##  1 25th St                 
    ##  2 36th St                 
    ##  3 45th St                 
    ##  4 53rd St                 
    ##  5 59th St                 
    ##  6 77th St                 
    ##  7 86th St                 
    ##  8 95th St                 
    ##  9 9th St                  
    ## 10 Atlantic Av-Barclays Ctr
    ## # ... with 346 more rows
…
